[
    {
        "category": "Ford", 
        "color": [
            0, 
            252, 
            0
        ], 
        "weight": 34.09, 
        "name": "Ford039", 
        "coordinates": [
            1314.24, 
            2032.8
        ]
    }, 
    {
        "category": "Chevy", 
        "color": [
            252, 
            252, 
            0
        ], 
        "weight": 14.72, 
        "name": "Chevy045", 
        "coordinates": [
            1392.68, 
            1992.7
        ]
    }, 
    {
        "category": "Chevy", 
        "color": [
            252, 
            252, 
            0
        ], 
        "weight": 10.72, 
        "name": "Chevy001", 
        "coordinates": [
            1300.28, 
            1040.47
        ]
    }, 
    {
        "category": "Ford", 
        "color": [
            0, 
            252, 
            0
        ], 
        "weight": 17.69, 
        "name": "Ford001", 
        "coordinates": [
            1290.17, 
            1082.88
        ]
    }, 
    {
        "category": "Honda", 
        "color": [
            252, 
            0, 
            0
        ], 
        "weight": 17.47, 
        "name": "Honda001", 
        "coordinates": [
            1315.86, 
            1111.42
        ]
    }, 
    {
        "category": "Ford", 
        "color": [
            0, 
            252, 
            0
        ], 
        "weight": 23.29, 
        "name": "Ford002", 
        "coordinates": [
            1331.29, 
            1128.54
        ]
    }, 
    {
        "category": "Ford", 
        "color": [
            0, 
            252, 
            0
        ], 
        "weight": 36.95, 
        "name": "Ford003", 
        "coordinates": [
            1305.7, 
            1184.49
        ]
    }, 
    {
        "category": "Chevy", 
        "color": [
            252, 
            252, 
            0
        ], 
        "weight": 54.28, 
        "name": "Chevy002", 
        "coordinates": [
            1360.93, 
            1227.75
        ]
    }, 
    {
        "category": "Chevy", 
        "color": [
            252, 
            252, 
            0
        ], 
        "weight": 36.21, 
        "name": "Chevy003", 
        "coordinates": [
            1357.96, 
            1226.96
        ]
    }, 
    {
        "category": "Toyota", 
        "color": [
            0, 
            0, 
            252
        ], 
        "weight": 19.44, 
        "name": "Toyota001", 
        "coordinates": [
            1371.05, 
            1262.73
        ]
    }, 
    {
        "category": "Ford", 
        "color": [
            0, 
            252, 
            0
        ], 
        "weight": 58.46, 
        "name": "Ford004", 
        "coordinates": [
            1404.86, 
            1265.72
        ]
    }, 
    {
        "category": "Toyota", 
        "color": [
            0, 
            0, 
            252
        ], 
        "weight": 19.56, 
        "name": "Toyota002", 
        "coordinates": [
            1428.14, 
            1325.36
        ]
    }, 
    {
        "category": "Chevy", 
        "color": [
            252, 
            252, 
            0
        ], 
        "weight": 53.15, 
        "name": "Chevy004", 
        "coordinates": [
            1471.06, 
            1328.58
        ]
    }, 
    {
        "category": "Ford", 
        "color": [
            0, 
            252, 
            0
        ], 
        "weight": 39.92, 
        "name": "Ford005", 
        "coordinates": [
            1491.1, 
            1315.01
        ]
    }, 
    {
        "category": "Chevy", 
        "color": [
            252, 
            252, 
            0
        ], 
        "weight": 53.59, 
        "name": "Chevy005", 
        "coordinates": [
            1506.18, 
            1307.44
        ]
    }, 
    {
        "category": "Toyota", 
        "color": [
            0, 
            0, 
            252
        ], 
        "weight": 63.33, 
        "name": "Toyota003", 
        "coordinates": [
            1537.84, 
            1348.51
        ]
    }, 
    {
        "category": "Toyota", 
        "color": [
            0, 
            0, 
            252
        ], 
        "weight": 26.25, 
        "name": "Toyota004", 
        "coordinates": [
            1565.34, 
            1349.78
        ]
    }, 
    {
        "category": "Toyota", 
        "color": [
            0, 
            0, 
            252
        ], 
        "weight": 64.3, 
        "name": "Toyota005", 
        "coordinates": [
            1632.53, 
            1322.98
        ]
    }, 
    {
        "category": "Honda", 
        "color": [
            252, 
            0, 
            0
        ], 
        "weight": 30.92, 
        "name": "Honda002", 
        "coordinates": [
            1642.98, 
            1307.06
        ]
    }, 
    {
        "category": "Chevy", 
        "color": [
            252, 
            252, 
            0
        ], 
        "weight": 14.89, 
        "name": "Chevy006", 
        "coordinates": [
            1705.38, 
            1338.44
        ]
    }, 
    {
        "category": "Toyota", 
        "color": [
            0, 
            0, 
            252
        ], 
        "weight": 63.59, 
        "name": "Toyota006", 
        "coordinates": [
            1725.86, 
            1335.67
        ]
    }, 
    {
        "category": "Toyota", 
        "color": [
            0, 
            0, 
            252
        ], 
        "weight": 16.09, 
        "name": "Toyota007", 
        "coordinates": [
            1760.84, 
            1309.46
        ]
    }, 
    {
        "category": "Toyota", 
        "color": [
            0, 
            0, 
            252
        ], 
        "weight": 59.92, 
        "name": "Toyota008", 
        "coordinates": [
            1770.91, 
            1316.58
        ]
    }, 
    {
        "category": "Toyota", 
        "color": [
            0, 
            0, 
            252
        ], 
        "weight": 19.77, 
        "name": "Toyota009", 
        "coordinates": [
            1811.34, 
            1310.16
        ]
    }, 
    {
        "category": "Ford", 
        "color": [
            0, 
            252, 
            0
        ], 
        "weight": 63.54, 
        "name": "Ford006", 
        "coordinates": [
            1845.66, 
            1339.09
        ]
    }, 
    {
        "category": "Ford", 
        "color": [
            0, 
            252, 
            0
        ], 
        "weight": 18.7, 
        "name": "Ford007", 
        "coordinates": [
            1897.87, 
            1335.27
        ]
    }, 
    {
        "category": "Ford", 
        "color": [
            0, 
            252, 
            0
        ], 
        "weight": 27.45, 
        "name": "Ford008", 
        "coordinates": [
            1916.66, 
            1348.85
        ]
    }, 
    {
        "category": "Ford", 
        "color": [
            0, 
            252, 
            0
        ], 
        "weight": 45.97, 
        "name": "Ford009", 
        "coordinates": [
            1938.07, 
            1311.72
        ]
    }, 
    {
        "category": "Ford", 
        "color": [
            0, 
            252, 
            0
        ], 
        "weight": 19.49, 
        "name": "Ford010", 
        "coordinates": [
            1995.31, 
            1329.78
        ]
    }, 
    {
        "category": "Toyota", 
        "color": [
            0, 
            0, 
            252
        ], 
        "weight": 46.52, 
        "name": "Toyota010", 
        "coordinates": [
            2030.27, 
            1293.82
        ]
    }, 
    {
        "category": "Honda", 
        "color": [
            252, 
            0, 
            0
        ], 
        "weight": 27.57, 
        "name": "Honda003", 
        "coordinates": [
            2062.15, 
            1290.76
        ]
    }, 
    {
        "category": "Chevy", 
        "color": [
            252, 
            252, 
            0
        ], 
        "weight": 59.91, 
        "name": "Chevy007", 
        "coordinates": [
            2087.75, 
            1289.81
        ]
    }, 
    {
        "category": "Honda", 
        "color": [
            252, 
            0, 
            0
        ], 
        "weight": 10.77, 
        "name": "Honda004", 
        "coordinates": [
            2108.52, 
            1331.53
        ]
    }, 
    {
        "category": "Chevy", 
        "color": [
            252, 
            252, 
            0
        ], 
        "weight": 50.48, 
        "name": "Chevy008", 
        "coordinates": [
            2164.06, 
            1302.82
        ]
    }, 
    {
        "category": "Chevy", 
        "color": [
            252, 
            252, 
            0
        ], 
        "weight": 16.98, 
        "name": "Chevy009", 
        "coordinates": [
            2161.24, 
            1261.65
        ]
    }, 
    {
        "category": "Honda", 
        "color": [
            252, 
            0, 
            0
        ], 
        "weight": 59.94, 
        "name": "Honda005", 
        "coordinates": [
            2192.93, 
            1242.1
        ]
    }, 
    {
        "category": "Chevy", 
        "color": [
            252, 
            252, 
            0
        ], 
        "weight": 24.49, 
        "name": "Chevy010", 
        "coordinates": [
            2231.3, 
            1250.51
        ]
    }, 
    {
        "category": "Chevy", 
        "color": [
            252, 
            252, 
            0
        ], 
        "weight": 55.31, 
        "name": "Chevy011", 
        "coordinates": [
            2244.77, 
            1189.47
        ]
    }, 
    {
        "category": "Chevy", 
        "color": [
            252, 
            252, 
            0
        ], 
        "weight": 22.04, 
        "name": "Chevy012", 
        "coordinates": [
            2227.92, 
            1194.42
        ]
    }, 
    {
        "category": "Chevy", 
        "color": [
            252, 
            252, 
            0
        ], 
        "weight": 55.45, 
        "name": "Chevy013", 
        "coordinates": [
            2273.01, 
            1150.65
        ]
    }, 
    {
        "category": "Toyota", 
        "color": [
            0, 
            0, 
            252
        ], 
        "weight": 31.99, 
        "name": "Toyota011", 
        "coordinates": [
            2248.12, 
            1130.6
        ]
    }, 
    {
        "category": "Chevy", 
        "color": [
            252, 
            252, 
            0
        ], 
        "weight": 49.63, 
        "name": "Chevy014", 
        "coordinates": [
            2217.08, 
            1095.62
        ]
    }, 
    {
        "category": "Honda", 
        "color": [
            252, 
            0, 
            0
        ], 
        "weight": 22.95, 
        "name": "Honda006", 
        "coordinates": [
            2244.97, 
            1029.47
        ]
    }, 
    {
        "category": "Ford", 
        "color": [
            0, 
            252, 
            0
        ], 
        "weight": 44.52, 
        "name": "Ford011", 
        "coordinates": [
            2242.18, 
            1033.69
        ]
    }, 
    {
        "category": "Chevy", 
        "color": [
            252, 
            252, 
            0
        ], 
        "weight": 60.05, 
        "name": "Chevy015", 
        "coordinates": [
            2205.61, 
            989.38
        ]
    }, 
    {
        "category": "Toyota", 
        "color": [
            0, 
            0, 
            252
        ], 
        "weight": 35.79, 
        "name": "Toyota012", 
        "coordinates": [
            2167.2, 
            976.06
        ]
    }, 
    {
        "category": "Chevy", 
        "color": [
            252, 
            252, 
            0
        ], 
        "weight": 15.39, 
        "name": "Chevy016", 
        "coordinates": [
            2278.76, 
            1189.67
        ]
    }, 
    {
        "category": "Ford", 
        "color": [
            0, 
            252, 
            0
        ], 
        "weight": 45.3, 
        "name": "Ford012", 
        "coordinates": [
            2269.69, 
            1237.69
        ]
    }, 
    {
        "category": "Toyota", 
        "color": [
            0, 
            0, 
            252
        ], 
        "weight": 67.39, 
        "name": "Toyota013", 
        "coordinates": [
            2271.98, 
            1249.08
        ]
    }, 
    {
        "category": "Ford", 
        "color": [
            0, 
            252, 
            0
        ], 
        "weight": 21.23, 
        "name": "Ford013", 
        "coordinates": [
            2318.39, 
            1246.0
        ]
    }, 
    {
        "category": "Toyota", 
        "color": [
            0, 
            0, 
            252
        ], 
        "weight": 22.09, 
        "name": "Toyota014", 
        "coordinates": [
            2356.88, 
            1279.84
        ]
    }, 
    {
        "category": "Ford", 
        "color": [
            0, 
            252, 
            0
        ], 
        "weight": 66.3, 
        "name": "Ford014", 
        "coordinates": [
            2386.75, 
            1304.82
        ]
    }, 
    {
        "category": "Chevy", 
        "color": [
            252, 
            252, 
            0
        ], 
        "weight": 62.66, 
        "name": "Chevy017", 
        "coordinates": [
            2414.85, 
            1325.07
        ]
    }, 
    {
        "category": "Toyota", 
        "color": [
            0, 
            0, 
            252
        ], 
        "weight": 35.5, 
        "name": "Toyota015", 
        "coordinates": [
            2426.88, 
            1352.27
        ]
    }, 
    {
        "category": "Chevy", 
        "color": [
            252, 
            252, 
            0
        ], 
        "weight": 34.13, 
        "name": "Chevy018", 
        "coordinates": [
            2445.41, 
            1393.93
        ]
    }, 
    {
        "category": "Chevy", 
        "color": [
            252, 
            252, 
            0
        ], 
        "weight": 16.4, 
        "name": "Chevy019", 
        "coordinates": [
            2448.65, 
            1391.42
        ]
    }, 
    {
        "category": "Chevy", 
        "color": [
            252, 
            252, 
            0
        ], 
        "weight": 65.96, 
        "name": "Chevy020", 
        "coordinates": [
            2450.84, 
            1426.65
        ]
    }, 
    {
        "category": "Honda", 
        "color": [
            252, 
            0, 
            0
        ], 
        "weight": 55.21, 
        "name": "Honda007", 
        "coordinates": [
            2450.09, 
            1458.73
        ]
    }, 
    {
        "category": "Chevy", 
        "color": [
            252, 
            252, 
            0
        ], 
        "weight": 28.73, 
        "name": "Chevy021", 
        "coordinates": [
            2436.73, 
            1478.36
        ]
    }, 
    {
        "category": "Honda", 
        "color": [
            252, 
            0, 
            0
        ], 
        "weight": 14.7, 
        "name": "Honda008", 
        "coordinates": [
            2412.08, 
            1527.13
        ]
    }, 
    {
        "category": "Honda", 
        "color": [
            252, 
            0, 
            0
        ], 
        "weight": 60.07, 
        "name": "Honda009", 
        "coordinates": [
            2405.78, 
            1534.4
        ]
    }, 
    {
        "category": "Chevy", 
        "color": [
            252, 
            252, 
            0
        ], 
        "weight": 66.91, 
        "name": "Chevy022", 
        "coordinates": [
            2387.39, 
            1597.51
        ]
    }, 
    {
        "category": "Honda", 
        "color": [
            252, 
            0, 
            0
        ], 
        "weight": 26.16, 
        "name": "Honda010", 
        "coordinates": [
            2358.81, 
            1617.62
        ]
    }, 
    {
        "category": "Ford", 
        "color": [
            0, 
            252, 
            0
        ], 
        "weight": 61.05, 
        "name": "Ford015", 
        "coordinates": [
            2389.66, 
            1646.83
        ]
    }, 
    {
        "category": "Honda", 
        "color": [
            252, 
            0, 
            0
        ], 
        "weight": 13.59, 
        "name": "Honda011", 
        "coordinates": [
            2353.85, 
            1668.68
        ]
    }, 
    {
        "category": "Honda", 
        "color": [
            252, 
            0, 
            0
        ], 
        "weight": 19.15, 
        "name": "Honda012", 
        "coordinates": [
            2353.72, 
            1677.1
        ]
    }, 
    {
        "category": "Toyota", 
        "color": [
            0, 
            0, 
            252
        ], 
        "weight": 26.84, 
        "name": "Toyota016", 
        "coordinates": [
            2311.34, 
            1708.09
        ]
    }, 
    {
        "category": "Chevy", 
        "color": [
            252, 
            252, 
            0
        ], 
        "weight": 66.78, 
        "name": "Chevy023", 
        "coordinates": [
            2310.09, 
            1740.11
        ]
    }, 
    {
        "category": "Honda", 
        "color": [
            252, 
            0, 
            0
        ], 
        "weight": 38.45, 
        "name": "Honda013", 
        "coordinates": [
            2300.43, 
            1786.02
        ]
    }, 
    {
        "category": "Honda", 
        "color": [
            252, 
            0, 
            0
        ], 
        "weight": 27.76, 
        "name": "Honda014", 
        "coordinates": [
            2327.84, 
            1825.93
        ]
    }, 
    {
        "category": "Toyota", 
        "color": [
            0, 
            0, 
            252
        ], 
        "weight": 36.26, 
        "name": "Toyota017", 
        "coordinates": [
            2366.79, 
            1848.71
        ]
    }, 
    {
        "category": "Honda", 
        "color": [
            252, 
            0, 
            0
        ], 
        "weight": 15.98, 
        "name": "Honda015", 
        "coordinates": [
            2363.47, 
            1880.69
        ]
    }, 
    {
        "category": "Honda", 
        "color": [
            252, 
            0, 
            0
        ], 
        "weight": 66.49, 
        "name": "Honda016", 
        "coordinates": [
            2431.81, 
            1832.14
        ]
    }, 
    {
        "category": "Ford", 
        "color": [
            0, 
            252, 
            0
        ], 
        "weight": 15.39, 
        "name": "Ford016", 
        "coordinates": [
            2450.95, 
            1868.84
        ]
    }, 
    {
        "category": "Honda", 
        "color": [
            252, 
            0, 
            0
        ], 
        "weight": 52.5, 
        "name": "Honda017", 
        "coordinates": [
            2497.91, 
            1855.15
        ]
    }, 
    {
        "category": "Toyota", 
        "color": [
            0, 
            0, 
            252
        ], 
        "weight": 37.72, 
        "name": "Toyota018", 
        "coordinates": [
            2502.01, 
            1839.75
        ]
    }, 
    {
        "category": "Chevy", 
        "color": [
            252, 
            252, 
            0
        ], 
        "weight": 17.53, 
        "name": "Chevy024", 
        "coordinates": [
            2568.35, 
            1878.65
        ]
    }, 
    {
        "category": "Toyota", 
        "color": [
            0, 
            0, 
            252
        ], 
        "weight": 31.82, 
        "name": "Toyota019", 
        "coordinates": [
            2565.24, 
            1864.27
        ]
    }, 
    {
        "category": "Ford", 
        "color": [
            0, 
            252, 
            0
        ], 
        "weight": 36.51, 
        "name": "Ford017", 
        "coordinates": [
            2629.61, 
            1850.62
        ]
    }, 
    {
        "category": "Chevy", 
        "color": [
            252, 
            252, 
            0
        ], 
        "weight": 51.64, 
        "name": "Chevy025", 
        "coordinates": [
            2624.41, 
            1843.65
        ]
    }, 
    {
        "category": "Chevy", 
        "color": [
            252, 
            252, 
            0
        ], 
        "weight": 10.05, 
        "name": "Chevy026", 
        "coordinates": [
            2679.18, 
            1888.2
        ]
    }, 
    {
        "category": "Toyota", 
        "color": [
            0, 
            0, 
            252
        ], 
        "weight": 32.19, 
        "name": "Toyota020", 
        "coordinates": [
            2693.84, 
            1862.45
        ]
    }, 
    {
        "category": "Honda", 
        "color": [
            252, 
            0, 
            0
        ], 
        "weight": 36.5, 
        "name": "Honda018", 
        "coordinates": [
            2766.39, 
            1879.84
        ]
    }, 
    {
        "category": "Toyota", 
        "color": [
            0, 
            0, 
            252
        ], 
        "weight": 29.57, 
        "name": "Toyota021", 
        "coordinates": [
            2770.7, 
            1862.92
        ]
    }, 
    {
        "category": "Toyota", 
        "color": [
            0, 
            0, 
            252
        ], 
        "weight": 64.57, 
        "name": "Toyota022", 
        "coordinates": [
            2806.9, 
            1838.85
        ]
    }, 
    {
        "category": "Chevy", 
        "color": [
            252, 
            252, 
            0
        ], 
        "weight": 28.02, 
        "name": "Chevy027", 
        "coordinates": [
            2833.1, 
            1837.21
        ]
    }, 
    {
        "category": "Ford", 
        "color": [
            0, 
            252, 
            0
        ], 
        "weight": 48.1, 
        "name": "Ford018", 
        "coordinates": [
            2861.58, 
            1818.1
        ]
    }, 
    {
        "category": "Ford", 
        "color": [
            0, 
            252, 
            0
        ], 
        "weight": 12.55, 
        "name": "Ford019", 
        "coordinates": [
            2899.74, 
            1815.69
        ]
    }, 
    {
        "category": "Honda", 
        "color": [
            252, 
            0, 
            0
        ], 
        "weight": 24.24, 
        "name": "Honda019", 
        "coordinates": [
            2946.7, 
            1823.73
        ]
    }, 
    {
        "category": "Chevy", 
        "color": [
            252, 
            252, 
            0
        ], 
        "weight": 23.43, 
        "name": "Chevy028", 
        "coordinates": [
            2964.77, 
            1799.57
        ]
    }, 
    {
        "category": "Chevy", 
        "color": [
            252, 
            252, 
            0
        ], 
        "weight": 22.12, 
        "name": "Chevy029", 
        "coordinates": [
            3018.4, 
            1793.71
        ]
    }, 
    {
        "category": "Ford", 
        "color": [
            0, 
            252, 
            0
        ], 
        "weight": 26.03, 
        "name": "Ford020", 
        "coordinates": [
            3057.0, 
            1820.06
        ]
    }, 
    {
        "category": "Honda", 
        "color": [
            252, 
            0, 
            0
        ], 
        "weight": 41.65, 
        "name": "Honda020", 
        "coordinates": [
            3061.05, 
            1805.97
        ]
    }, 
    {
        "category": "Chevy", 
        "color": [
            252, 
            252, 
            0
        ], 
        "weight": 41.88, 
        "name": "Chevy030", 
        "coordinates": [
            3111.68, 
            1821.95
        ]
    }, 
    {
        "category": "Chevy", 
        "color": [
            252, 
            252, 
            0
        ], 
        "weight": 55.44, 
        "name": "Chevy031", 
        "coordinates": [
            3154.05, 
            1826.57
        ]
    }, 
    {
        "category": "Toyota", 
        "color": [
            0, 
            0, 
            252
        ], 
        "weight": 12.52, 
        "name": "Toyota023", 
        "coordinates": [
            3153.66, 
            1867.82
        ]
    }, 
    {
        "category": "Ford", 
        "color": [
            0, 
            252, 
            0
        ], 
        "weight": 66.17, 
        "name": "Ford021", 
        "coordinates": [
            3175.24, 
            1868.66
        ]
    }, 
    {
        "category": "Honda", 
        "color": [
            252, 
            0, 
            0
        ], 
        "weight": 51.02, 
        "name": "Honda021", 
        "coordinates": [
            3239.05, 
            1877.06
        ]
    }, 
    {
        "category": "Ford", 
        "color": [
            0, 
            252, 
            0
        ], 
        "weight": 51.51, 
        "name": "Ford022", 
        "coordinates": [
            3248.52, 
            1903.41
        ]
    }, 
    {
        "category": "Ford", 
        "color": [
            0, 
            252, 
            0
        ], 
        "weight": 21.91, 
        "name": "Ford023", 
        "coordinates": [
            3286.93, 
            1946.1
        ]
    }, 
    {
        "category": "Honda", 
        "color": [
            252, 
            0, 
            0
        ], 
        "weight": 30.93, 
        "name": "Honda022", 
        "coordinates": [
            3268.75, 
            1966.13
        ]
    }, 
    {
        "category": "Toyota", 
        "color": [
            0, 
            0, 
            252
        ], 
        "weight": 12.38, 
        "name": "Toyota024", 
        "coordinates": [
            3327.32, 
            1997.76
        ]
    }, 
    {
        "category": "Ford", 
        "color": [
            0, 
            252, 
            0
        ], 
        "weight": 22.13, 
        "name": "Ford024", 
        "coordinates": [
            3352.8, 
            1959.21
        ]
    }, 
    {
        "category": "Honda", 
        "color": [
            252, 
            0, 
            0
        ], 
        "weight": 48.58, 
        "name": "Honda024", 
        "coordinates": [
            2353.63, 
            1849.01
        ]
    }, 
    {
        "category": "Honda", 
        "color": [
            252, 
            0, 
            0
        ], 
        "weight": 56.79, 
        "name": "Honda025", 
        "coordinates": [
            2312.71, 
            1902.57
        ]
    }, 
    {
        "category": "Toyota", 
        "color": [
            0, 
            0, 
            252
        ], 
        "weight": 38.74, 
        "name": "Toyota027", 
        "coordinates": [
            2303.15, 
            1863.45
        ]
    }, 
    {
        "category": "Honda", 
        "color": [
            252, 
            0, 
            0
        ], 
        "weight": 65.51, 
        "name": "Honda026", 
        "coordinates": [
            2279.22, 
            1878.39
        ]
    }, 
    {
        "category": "Toyota", 
        "color": [
            0, 
            0, 
            252
        ], 
        "weight": 30.68, 
        "name": "Toyota028", 
        "coordinates": [
            2231.32, 
            1845.4
        ]
    }, 
    {
        "category": "Chevy", 
        "color": [
            252, 
            252, 
            0
        ], 
        "weight": 10.45, 
        "name": "Chevy032", 
        "coordinates": [
            2211.01, 
            1876.38
        ]
    }, 
    {
        "category": "Toyota", 
        "color": [
            0, 
            0, 
            252
        ], 
        "weight": 61.22, 
        "name": "Toyota029", 
        "coordinates": [
            2164.97, 
            1830.38
        ]
    }, 
    {
        "category": "Honda", 
        "color": [
            252, 
            0, 
            0
        ], 
        "weight": 52.77, 
        "name": "Honda027", 
        "coordinates": [
            2157.19, 
            1843.07
        ]
    }, 
    {
        "category": "Honda", 
        "color": [
            252, 
            0, 
            0
        ], 
        "weight": 47.03, 
        "name": "Honda028", 
        "coordinates": [
            2109.73, 
            1820.83
        ]
    }, 
    {
        "category": "Chevy", 
        "color": [
            252, 
            252, 
            0
        ], 
        "weight": 62.68, 
        "name": "Chevy033", 
        "coordinates": [
            2076.84, 
            1834.28
        ]
    }, 
    {
        "category": "Honda", 
        "color": [
            252, 
            0, 
            0
        ], 
        "weight": 45.28, 
        "name": "Honda029", 
        "coordinates": [
            2066.48, 
            1788.46
        ]
    }, 
    {
        "category": "Honda", 
        "color": [
            252, 
            0, 
            0
        ], 
        "weight": 13.47, 
        "name": "Honda030", 
        "coordinates": [
            2013.88, 
            1763.69
        ]
    }, 
    {
        "category": "Honda", 
        "color": [
            252, 
            0, 
            0
        ], 
        "weight": 55.66, 
        "name": "Honda031", 
        "coordinates": [
            1992.48, 
            1779.76
        ]
    }, 
    {
        "category": "Honda", 
        "color": [
            252, 
            0, 
            0
        ], 
        "weight": 67.21, 
        "name": "Honda032", 
        "coordinates": [
            1991.69, 
            1718.63
        ]
    }, 
    {
        "category": "Toyota", 
        "color": [
            0, 
            0, 
            252
        ], 
        "weight": 14.31, 
        "name": "Toyota030", 
        "coordinates": [
            1936.93, 
            1729.34
        ]
    }, 
    {
        "category": "Honda", 
        "color": [
            252, 
            0, 
            0
        ], 
        "weight": 55.02, 
        "name": "Honda033", 
        "coordinates": [
            1917.81, 
            1728.73
        ]
    }, 
    {
        "category": "Honda", 
        "color": [
            252, 
            0, 
            0
        ], 
        "weight": 30.74, 
        "name": "Honda034", 
        "coordinates": [
            1881.5, 
            1689.36
        ]
    }, 
    {
        "category": "Ford", 
        "color": [
            0, 
            252, 
            0
        ], 
        "weight": 69.67, 
        "name": "Ford027", 
        "coordinates": [
            1851.54, 
            1720.43
        ]
    }, 
    {
        "category": "Honda", 
        "color": [
            252, 
            0, 
            0
        ], 
        "weight": 25.48, 
        "name": "Honda035", 
        "coordinates": [
            1843.04, 
            1677.19
        ]
    }, 
    {
        "category": "Ford", 
        "color": [
            0, 
            252, 
            0
        ], 
        "weight": 14.07, 
        "name": "Ford028", 
        "coordinates": [
            1878.23, 
            1680.65
        ]
    }, 
    {
        "category": "Chevy", 
        "color": [
            252, 
            252, 
            0
        ], 
        "weight": 68.64, 
        "name": "Chevy034", 
        "coordinates": [
            1867.38, 
            1618.99
        ]
    }, 
    {
        "category": "Chevy", 
        "color": [
            252, 
            252, 
            0
        ], 
        "weight": 47.0, 
        "name": "Chevy035", 
        "coordinates": [
            1880.71, 
            1598.13
        ]
    }, 
    {
        "category": "Honda", 
        "color": [
            252, 
            0, 
            0
        ], 
        "weight": 68.26, 
        "name": "Honda036", 
        "coordinates": [
            1857.55, 
            1543.07
        ]
    }, 
    {
        "category": "Chevy", 
        "color": [
            252, 
            252, 
            0
        ], 
        "weight": 19.55, 
        "name": "Chevy036", 
        "coordinates": [
            1906.84, 
            1503.35
        ]
    }, 
    {
        "category": "Toyota", 
        "color": [
            0, 
            0, 
            252
        ], 
        "weight": 11.07, 
        "name": "Toyota031", 
        "coordinates": [
            1888.51, 
            1473.08
        ]
    }, 
    {
        "category": "Honda", 
        "color": [
            252, 
            0, 
            0
        ], 
        "weight": 26.86, 
        "name": "Honda037", 
        "coordinates": [
            1881.99, 
            1474.59
        ]
    }, 
    {
        "category": "Toyota", 
        "color": [
            0, 
            0, 
            252
        ], 
        "weight": 57.7, 
        "name": "Toyota032", 
        "coordinates": [
            1853.45, 
            1424.83
        ]
    }, 
    {
        "category": "Chevy", 
        "color": [
            252, 
            252, 
            0
        ], 
        "weight": 18.44, 
        "name": "Chevy037", 
        "coordinates": [
            1850.86, 
            1417.8
        ]
    }, 
    {
        "category": "Chevy", 
        "color": [
            252, 
            252, 
            0
        ], 
        "weight": 34.16, 
        "name": "Chevy038", 
        "coordinates": [
            1834.74, 
            1385.61
        ]
    }, 
    {
        "category": "Honda", 
        "color": [
            252, 
            0, 
            0
        ], 
        "weight": 68.69, 
        "name": "Honda038", 
        "coordinates": [
            1818.58, 
            1316.61
        ]
    }, 
    {
        "category": "Chevy", 
        "color": [
            252, 
            252, 
            0
        ], 
        "weight": 33.26, 
        "name": "Chevy039", 
        "coordinates": [
            1853.8, 
            1658.11
        ]
    }, 
    {
        "category": "Toyota", 
        "color": [
            0, 
            0, 
            252
        ], 
        "weight": 28.06, 
        "name": "Toyota033", 
        "coordinates": [
            1893.13, 
            1648.79
        ]
    }, 
    {
        "category": "Ford", 
        "color": [
            0, 
            252, 
            0
        ], 
        "weight": 11.64, 
        "name": "Ford029", 
        "coordinates": [
            1939.82, 
            1666.69
        ]
    }, 
    {
        "category": "Honda", 
        "color": [
            252, 
            0, 
            0
        ], 
        "weight": 29.38, 
        "name": "Honda039", 
        "coordinates": [
            1968.22, 
            1596.76
        ]
    }, 
    {
        "category": "Toyota", 
        "color": [
            0, 
            0, 
            252
        ], 
        "weight": 64.71, 
        "name": "Toyota034", 
        "coordinates": [
            2009.97, 
            1631.48
        ]
    }, 
    {
        "category": "Honda", 
        "color": [
            252, 
            0, 
            0
        ], 
        "weight": 55.6, 
        "name": "Honda040", 
        "coordinates": [
            2021.95, 
            1567.99
        ]
    }, 
    {
        "category": "Toyota", 
        "color": [
            0, 
            0, 
            252
        ], 
        "weight": 24.17, 
        "name": "Toyota035", 
        "coordinates": [
            2068.84, 
            1597.65
        ]
    }, 
    {
        "category": "Toyota", 
        "color": [
            0, 
            0, 
            252
        ], 
        "weight": 50.94, 
        "name": "Toyota036", 
        "coordinates": [
            2100.53, 
            1580.06
        ]
    }, 
    {
        "category": "Honda", 
        "color": [
            252, 
            0, 
            0
        ], 
        "weight": 36.28, 
        "name": "Honda041", 
        "coordinates": [
            2120.07, 
            1575.77
        ]
    }, 
    {
        "category": "Ford", 
        "color": [
            0, 
            252, 
            0
        ], 
        "weight": 39.72, 
        "name": "Ford030", 
        "coordinates": [
            2168.07, 
            1572.99
        ]
    }, 
    {
        "category": "Ford", 
        "color": [
            0, 
            252, 
            0
        ], 
        "weight": 41.61, 
        "name": "Ford031", 
        "coordinates": [
            2165.89, 
            1514.66
        ]
    }, 
    {
        "category": "Honda", 
        "color": [
            252, 
            0, 
            0
        ], 
        "weight": 49.8, 
        "name": "Honda042", 
        "coordinates": [
            2213.47, 
            1525.66
        ]
    }, 
    {
        "category": "Honda", 
        "color": [
            252, 
            0, 
            0
        ], 
        "weight": 11.27, 
        "name": "Honda043", 
        "coordinates": [
            2224.19, 
            1514.54
        ]
    }, 
    {
        "category": "Chevy", 
        "color": [
            252, 
            252, 
            0
        ], 
        "weight": 28.99, 
        "name": "Chevy040", 
        "coordinates": [
            2282.06, 
            1506.46
        ]
    }, 
    {
        "category": "Honda", 
        "color": [
            252, 
            0, 
            0
        ], 
        "weight": 63.71, 
        "name": "Honda044", 
        "coordinates": [
            2302.94, 
            1530.13
        ]
    }, 
    {
        "category": "Toyota", 
        "color": [
            0, 
            0, 
            252
        ], 
        "weight": 17.86, 
        "name": "Toyota037", 
        "coordinates": [
            2351.24, 
            1492.12
        ]
    }, 
    {
        "category": "Toyota", 
        "color": [
            0, 
            0, 
            252
        ], 
        "weight": 52.36, 
        "name": "Toyota038", 
        "coordinates": [
            2375.46, 
            1459.56
        ]
    }, 
    {
        "category": "Honda", 
        "color": [
            252, 
            0, 
            0
        ], 
        "weight": 43.14, 
        "name": "Honda045", 
        "coordinates": [
            2430.16, 
            1496.32
        ]
    }, 
    {
        "category": "Honda", 
        "color": [
            252, 
            0, 
            0
        ], 
        "weight": 68.87, 
        "name": "Honda046", 
        "coordinates": [
            2432.36, 
            1450.48
        ]
    }, 
    {
        "category": "Toyota", 
        "color": [
            0, 
            0, 
            252
        ], 
        "weight": 25.57, 
        "name": "Toyota039", 
        "coordinates": [
            2097.15, 
            1592.59
        ]
    }, 
    {
        "category": "Ford", 
        "color": [
            0, 
            252, 
            0
        ], 
        "weight": 53.42, 
        "name": "Ford032", 
        "coordinates": [
            2119.43, 
            1622.79
        ]
    }, 
    {
        "category": "Toyota", 
        "color": [
            0, 
            0, 
            252
        ], 
        "weight": 19.35, 
        "name": "Toyota040", 
        "coordinates": [
            2146.5, 
            1603.89
        ]
    }, 
    {
        "category": "Chevy", 
        "color": [
            252, 
            252, 
            0
        ], 
        "weight": 48.97, 
        "name": "Chevy041", 
        "coordinates": [
            2185.71, 
            1641.75
        ]
    }, 
    {
        "category": "Ford", 
        "color": [
            0, 
            252, 
            0
        ], 
        "weight": 55.3, 
        "name": "Ford033", 
        "coordinates": [
            2189.69, 
            1626.66
        ]
    }, 
    {
        "category": "Chevy", 
        "color": [
            252, 
            252, 
            0
        ], 
        "weight": 16.07, 
        "name": "Chevy042", 
        "coordinates": [
            2219.86, 
            1682.18
        ]
    }, 
    {
        "category": "Ford", 
        "color": [
            0, 
            252, 
            0
        ], 
        "weight": 59.96, 
        "name": "Ford034", 
        "coordinates": [
            2265.73, 
            1693.4
        ]
    }, 
    {
        "category": "Toyota", 
        "color": [
            0, 
            0, 
            252
        ], 
        "weight": 51.81, 
        "name": "Toyota041", 
        "coordinates": [
            2299.21, 
            1704.03
        ]
    }, 
    {
        "category": "Toyota", 
        "color": [
            0, 
            0, 
            252
        ], 
        "weight": 47.47, 
        "name": "Toyota042", 
        "coordinates": [
            2292.7, 
            1724.61
        ]
    }, 
    {
        "category": "Honda", 
        "color": [
            252, 
            0, 
            0
        ], 
        "weight": 51.02, 
        "name": "Honda047", 
        "coordinates": [
            1907.88, 
            1691.33
        ]
    }, 
    {
        "category": "Toyota", 
        "color": [
            0, 
            0, 
            252
        ], 
        "weight": 64.25, 
        "name": "Toyota043", 
        "coordinates": [
            1810.99, 
            1694.86
        ]
    }, 
    {
        "category": "Chevy", 
        "color": [
            252, 
            252, 
            0
        ], 
        "weight": 18.13, 
        "name": "Chevy043", 
        "coordinates": [
            1808.35, 
            1716.82
        ]
    }, 
    {
        "category": "Toyota", 
        "color": [
            0, 
            0, 
            252
        ], 
        "weight": 17.19, 
        "name": "Toyota044", 
        "coordinates": [
            1829.17, 
            1738.31
        ]
    }, 
    {
        "category": "Ford", 
        "color": [
            0, 
            252, 
            0
        ], 
        "weight": 47.75, 
        "name": "Ford035", 
        "coordinates": [
            1771.15, 
            1767.11
        ]
    }, 
    {
        "category": "Honda", 
        "color": [
            252, 
            0, 
            0
        ], 
        "weight": 32.25, 
        "name": "Honda048", 
        "coordinates": [
            1716.89, 
            1809.51
        ]
    }, 
    {
        "category": "Toyota", 
        "color": [
            0, 
            0, 
            252
        ], 
        "weight": 45.05, 
        "name": "Toyota045", 
        "coordinates": [
            1690.82, 
            1825.11
        ]
    }, 
    {
        "category": "Chevy", 
        "color": [
            252, 
            252, 
            0
        ], 
        "weight": 49.76, 
        "name": "Chevy044", 
        "coordinates": [
            1679.15, 
            1840.48
        ]
    }, 
    {
        "category": "Ford", 
        "color": [
            0, 
            252, 
            0
        ], 
        "weight": 13.74, 
        "name": "Ford036", 
        "coordinates": [
            1645.95, 
            1862.33
        ]
    }, 
    {
        "category": "Toyota", 
        "color": [
            0, 
            0, 
            252
        ], 
        "weight": 39.29, 
        "name": "Toyota046", 
        "coordinates": [
            1586.9, 
            1842.52
        ]
    }, 
    {
        "category": "Honda", 
        "color": [
            252, 
            0, 
            0
        ], 
        "weight": 29.94, 
        "name": "Honda049", 
        "coordinates": [
            1571.98, 
            1869.39
        ]
    }, 
    {
        "category": "Ford", 
        "color": [
            0, 
            252, 
            0
        ], 
        "weight": 40.7, 
        "name": "Ford037", 
        "coordinates": [
            1570.29, 
            1877.86
        ]
    }, 
    {
        "category": "Toyota", 
        "color": [
            0, 
            0, 
            252
        ], 
        "weight": 67.72, 
        "name": "Toyota047", 
        "coordinates": [
            1510.84, 
            1910.94
        ]
    }, 
    {
        "category": "Toyota", 
        "color": [
            0, 
            0, 
            252
        ], 
        "weight": 43.9, 
        "name": "Toyota048", 
        "coordinates": [
            1502.86, 
            1908.19
        ]
    }, 
    {
        "category": "Honda", 
        "color": [
            252, 
            0, 
            0
        ], 
        "weight": 50.71, 
        "name": "Honda050", 
        "coordinates": [
            1485.28, 
            1959.42
        ]
    }, 
    {
        "category": "Toyota", 
        "color": [
            0, 
            0, 
            252
        ], 
        "weight": 23.02, 
        "name": "Toyota049", 
        "coordinates": [
            1464.48, 
            1987.8
        ]
    }, 
    {
        "category": "Ford", 
        "color": [
            0, 
            252, 
            0
        ], 
        "weight": 27.93, 
        "name": "Ford038", 
        "coordinates": [
            1447.99, 
            1995.34
        ]
    }, 
    {
        "category": "Chevy", 
        "color": [
            252, 
            252, 
            0
        ], 
        "weight": 56.4, 
        "name": "Chevy091", 
        "coordinates": [
            1844.56, 
            1332.08
        ]
    }, 
    {
        "category": "Chevy", 
        "color": [
            252, 
            252, 
            0
        ], 
        "weight": 41.85, 
        "name": "Chevy046", 
        "coordinates": [
            1355.71, 
            2036.21
        ]
    }, 
    {
        "category": "Honda", 
        "color": [
            252, 
            0, 
            0
        ], 
        "weight": 61.5, 
        "name": "Honda098", 
        "coordinates": [
            1887.63, 
            1281.85
        ]
    }, 
    {
        "category": "Honda", 
        "color": [
            252, 
            0, 
            0
        ], 
        "weight": 11.69, 
        "name": "Honda051", 
        "coordinates": [
            1281.3, 
            2058.62
        ]
    }, 
    {
        "category": "Toyota", 
        "color": [
            0, 
            0, 
            252
        ], 
        "weight": 52.91, 
        "name": "Toyota050", 
        "coordinates": [
            1308.7, 
            2108.21
        ]
    }, 
    {
        "category": "Honda", 
        "color": [
            252, 
            0, 
            0
        ], 
        "weight": 39.36, 
        "name": "Honda052", 
        "coordinates": [
            1248.47, 
            2125.61
        ]
    }, 
    {
        "category": "Honda", 
        "color": [
            252, 
            0, 
            0
        ], 
        "weight": 17.81, 
        "name": "Honda053", 
        "coordinates": [
            1284.34, 
            2141.7
        ]
    }, 
    {
        "category": "Honda", 
        "color": [
            252, 
            0, 
            0
        ], 
        "weight": 22.09, 
        "name": "Honda054", 
        "coordinates": [
            1882.37, 
            1667.17
        ]
    }, 
    {
        "category": "Chevy", 
        "color": [
            252, 
            252, 
            0
        ], 
        "weight": 59.16, 
        "name": "Chevy047", 
        "coordinates": [
            1828.64, 
            1722.06
        ]
    }, 
    {
        "category": "Ford", 
        "color": [
            0, 
            252, 
            0
        ], 
        "weight": 53.86, 
        "name": "Ford040", 
        "coordinates": [
            1798.1, 
            1715.09
        ]
    }, 
    {
        "category": "Chevy", 
        "color": [
            252, 
            252, 
            0
        ], 
        "weight": 24.46, 
        "name": "Chevy048", 
        "coordinates": [
            1791.1, 
            1746.65
        ]
    }, 
    {
        "category": "Toyota", 
        "color": [
            0, 
            0, 
            252
        ], 
        "weight": 21.87, 
        "name": "Toyota051", 
        "coordinates": [
            1745.63, 
            1795.81
        ]
    }, 
    {
        "category": "Chevy", 
        "color": [
            252, 
            252, 
            0
        ], 
        "weight": 19.63, 
        "name": "Chevy049", 
        "coordinates": [
            1710.39, 
            1795.51
        ]
    }, 
    {
        "category": "Toyota", 
        "color": [
            0, 
            0, 
            252
        ], 
        "weight": 54.36, 
        "name": "Toyota052", 
        "coordinates": [
            1718.71, 
            1810.9
        ]
    }, 
    {
        "category": "Honda", 
        "color": [
            252, 
            0, 
            0
        ], 
        "weight": 40.79, 
        "name": "Honda055", 
        "coordinates": [
            1684.29, 
            1840.75
        ]
    }, 
    {
        "category": "Toyota", 
        "color": [
            0, 
            0, 
            252
        ], 
        "weight": 24.33, 
        "name": "Toyota053", 
        "coordinates": [
            1632.43, 
            1840.04
        ]
    }, 
    {
        "category": "Ford", 
        "color": [
            0, 
            252, 
            0
        ], 
        "weight": 29.51, 
        "name": "Ford041", 
        "coordinates": [
            1613.21, 
            1855.12
        ]
    }, 
    {
        "category": "Chevy", 
        "color": [
            252, 
            252, 
            0
        ], 
        "weight": 43.5, 
        "name": "Chevy050", 
        "coordinates": [
            1582.38, 
            1909.91
        ]
    }, 
    {
        "category": "Honda", 
        "color": [
            252, 
            0, 
            0
        ], 
        "weight": 38.21, 
        "name": "Honda056", 
        "coordinates": [
            1555.87, 
            1890.55
        ]
    }, 
    {
        "category": "Ford", 
        "color": [
            0, 
            252, 
            0
        ], 
        "weight": 48.17, 
        "name": "Ford042", 
        "coordinates": [
            1518.62, 
            1912.87
        ]
    }, 
    {
        "category": "Chevy", 
        "color": [
            252, 
            252, 
            0
        ], 
        "weight": 50.32, 
        "name": "Chevy051", 
        "coordinates": [
            1494.69, 
            1904.47
        ]
    }, 
    {
        "category": "Honda", 
        "color": [
            252, 
            0, 
            0
        ], 
        "weight": 15.92, 
        "name": "Honda057", 
        "coordinates": [
            1493.01, 
            1947.56
        ]
    }, 
    {
        "category": "Chevy", 
        "color": [
            252, 
            252, 
            0
        ], 
        "weight": 18.81, 
        "name": "Chevy052", 
        "coordinates": [
            1422.76, 
            1956.42
        ]
    }, 
    {
        "category": "Chevy", 
        "color": [
            252, 
            252, 
            0
        ], 
        "weight": 15.1, 
        "name": "Chevy053", 
        "coordinates": [
            1431.83, 
            1986.8
        ]
    }, 
    {
        "category": "Chevy", 
        "color": [
            252, 
            252, 
            0
        ], 
        "weight": 18.45, 
        "name": "Chevy054", 
        "coordinates": [
            1405.27, 
            2006.1
        ]
    }, 
    {
        "category": "Chevy", 
        "color": [
            252, 
            252, 
            0
        ], 
        "weight": 22.73, 
        "name": "Chevy055", 
        "coordinates": [
            1353.4, 
            2037.09
        ]
    }, 
    {
        "category": "Honda", 
        "color": [
            252, 
            0, 
            0
        ], 
        "weight": 43.45, 
        "name": "Honda058", 
        "coordinates": [
            1358.48, 
            2062.58
        ]
    }, 
    {
        "category": "Honda", 
        "color": [
            252, 
            0, 
            0
        ], 
        "weight": 44.58, 
        "name": "Honda059", 
        "coordinates": [
            1330.54, 
            2082.84
        ]
    }, 
    {
        "category": "Toyota", 
        "color": [
            0, 
            0, 
            252
        ], 
        "weight": 42.66, 
        "name": "Toyota054", 
        "coordinates": [
            1274.2, 
            2090.58
        ]
    }, 
    {
        "category": "Ford", 
        "color": [
            0, 
            252, 
            0
        ], 
        "weight": 49.19, 
        "name": "Ford043", 
        "coordinates": [
            1295.98, 
            2122.2
        ]
    }, 
    {
        "category": "Chevy", 
        "color": [
            252, 
            252, 
            0
        ], 
        "weight": 43.67, 
        "name": "Chevy056", 
        "coordinates": [
            1268.78, 
            2162.58
        ]
    }, 
    {
        "category": "Chevy", 
        "color": [
            252, 
            252, 
            0
        ], 
        "weight": 45.58, 
        "name": "Chevy057", 
        "coordinates": [
            1286.64, 
            2194.58
        ]
    }, 
    {
        "category": "Honda", 
        "color": [
            252, 
            0, 
            0
        ], 
        "weight": 52.5, 
        "name": "Honda060", 
        "coordinates": [
            1267.95, 
            2251.19
        ]
    }, 
    {
        "category": "Toyota", 
        "color": [
            0, 
            0, 
            252
        ], 
        "weight": 67.81, 
        "name": "Toyota055", 
        "coordinates": [
            1258.41, 
            2248.2
        ]
    }, 
    {
        "category": "Ford", 
        "color": [
            0, 
            252, 
            0
        ], 
        "weight": 54.07, 
        "name": "Ford044", 
        "coordinates": [
            1258.74, 
            2288.63
        ]
    }, 
    {
        "category": "Honda", 
        "color": [
            252, 
            0, 
            0
        ], 
        "weight": 34.64, 
        "name": "Honda061", 
        "coordinates": [
            1233.01, 
            2305.56
        ]
    }, 
    {
        "category": "Ford", 
        "color": [
            0, 
            252, 
            0
        ], 
        "weight": 63.79, 
        "name": "Ford045", 
        "coordinates": [
            1275.81, 
            2173.19
        ]
    }, 
    {
        "category": "Toyota", 
        "color": [
            0, 
            0, 
            252
        ], 
        "weight": 26.4, 
        "name": "Toyota056", 
        "coordinates": [
            1250.04, 
            2210.04
        ]
    }, 
    {
        "category": "Ford", 
        "color": [
            0, 
            252, 
            0
        ], 
        "weight": 16.62, 
        "name": "Ford046", 
        "coordinates": [
            1268.53, 
            2259.57
        ]
    }, 
    {
        "category": "Chevy", 
        "color": [
            252, 
            252, 
            0
        ], 
        "weight": 48.2, 
        "name": "Chevy058", 
        "coordinates": [
            1337.95, 
            1502.37
        ]
    }, 
    {
        "category": "Toyota", 
        "color": [
            0, 
            0, 
            252
        ], 
        "weight": 39.98, 
        "name": "Toyota057", 
        "coordinates": [
            1375.4, 
            1560.72
        ]
    }, 
    {
        "category": "Chevy", 
        "color": [
            252, 
            252, 
            0
        ], 
        "weight": 67.39, 
        "name": "Chevy059", 
        "coordinates": [
            1384.91, 
            1508.2
        ]
    }, 
    {
        "category": "Honda", 
        "color": [
            252, 
            0, 
            0
        ], 
        "weight": 52.56, 
        "name": "Honda062", 
        "coordinates": [
            1403.08, 
            1566.56
        ]
    }, 
    {
        "category": "Ford", 
        "color": [
            0, 
            252, 
            0
        ], 
        "weight": 43.77, 
        "name": "Ford047", 
        "coordinates": [
            1459.25, 
            1583.05
        ]
    }, 
    {
        "category": "Honda", 
        "color": [
            252, 
            0, 
            0
        ], 
        "weight": 16.2, 
        "name": "Honda063", 
        "coordinates": [
            1542.2, 
            1569.51
        ]
    }, 
    {
        "category": "Chevy", 
        "color": [
            252, 
            252, 
            0
        ], 
        "weight": 45.19, 
        "name": "Chevy060", 
        "coordinates": [
            1508.65, 
            1568.02
        ]
    }, 
    {
        "category": "Chevy", 
        "color": [
            252, 
            252, 
            0
        ], 
        "weight": 67.75, 
        "name": "Chevy061", 
        "coordinates": [
            1550.83, 
            1618.65
        ]
    }, 
    {
        "category": "Ford", 
        "color": [
            0, 
            252, 
            0
        ], 
        "weight": 65.39, 
        "name": "Ford048", 
        "coordinates": [
            1577.35, 
            1593.32
        ]
    }, 
    {
        "category": "Ford", 
        "color": [
            0, 
            252, 
            0
        ], 
        "weight": 66.39, 
        "name": "Ford049", 
        "coordinates": [
            1602.29, 
            1600.41
        ]
    }, 
    {
        "category": "Chevy", 
        "color": [
            252, 
            252, 
            0
        ], 
        "weight": 31.94, 
        "name": "Chevy062", 
        "coordinates": [
            1630.66, 
            1651.94
        ]
    }, 
    {
        "category": "Honda", 
        "color": [
            252, 
            0, 
            0
        ], 
        "weight": 48.44, 
        "name": "Honda064", 
        "coordinates": [
            1666.59, 
            1669.87
        ]
    }, 
    {
        "category": "Chevy", 
        "color": [
            252, 
            252, 
            0
        ], 
        "weight": 26.3, 
        "name": "Chevy063", 
        "coordinates": [
            1715.45, 
            1689.94
        ]
    }, 
    {
        "category": "Ford", 
        "color": [
            0, 
            252, 
            0
        ], 
        "weight": 18.47, 
        "name": "Ford050", 
        "coordinates": [
            1722.31, 
            1694.84
        ]
    }, 
    {
        "category": "Toyota", 
        "color": [
            0, 
            0, 
            252
        ], 
        "weight": 24.94, 
        "name": "Toyota058", 
        "coordinates": [
            1761.94, 
            1719.61
        ]
    }, 
    {
        "category": "Toyota", 
        "color": [
            0, 
            0, 
            252
        ], 
        "weight": 61.37, 
        "name": "Toyota059", 
        "coordinates": [
            1815.76, 
            1753.27
        ]
    }, 
    {
        "category": "Honda", 
        "color": [
            252, 
            0, 
            0
        ], 
        "weight": 29.07, 
        "name": "Honda065", 
        "coordinates": [
            1810.94, 
            1775.62
        ]
    }, 
    {
        "category": "Toyota", 
        "color": [
            0, 
            0, 
            252
        ], 
        "weight": 17.99, 
        "name": "Toyota060", 
        "coordinates": [
            1814.83, 
            1820.01
        ]
    }, 
    {
        "category": "Chevy", 
        "color": [
            252, 
            252, 
            0
        ], 
        "weight": 66.42, 
        "name": "Chevy064", 
        "coordinates": [
            1822.63, 
            1853.36
        ]
    }, 
    {
        "category": "Ford", 
        "color": [
            0, 
            252, 
            0
        ], 
        "weight": 62.02, 
        "name": "Ford051", 
        "coordinates": [
            1864.58, 
            1825.31
        ]
    }, 
    {
        "category": "Toyota", 
        "color": [
            0, 
            0, 
            252
        ], 
        "weight": 56.29, 
        "name": "Toyota061", 
        "coordinates": [
            1900.87, 
            1867.14
        ]
    }, 
    {
        "category": "Toyota", 
        "color": [
            0, 
            0, 
            252
        ], 
        "weight": 33.62, 
        "name": "Toyota062", 
        "coordinates": [
            1910.73, 
            1860.51
        ]
    }, 
    {
        "category": "Ford", 
        "color": [
            0, 
            252, 
            0
        ], 
        "weight": 32.24, 
        "name": "Ford052", 
        "coordinates": [
            1962.02, 
            1874.14
        ]
    }, 
    {
        "category": "Ford", 
        "color": [
            0, 
            252, 
            0
        ], 
        "weight": 30.9, 
        "name": "Ford053", 
        "coordinates": [
            1988.81, 
            1933.33
        ]
    }, 
    {
        "category": "Toyota", 
        "color": [
            0, 
            0, 
            252
        ], 
        "weight": 14.78, 
        "name": "Toyota063", 
        "coordinates": [
            2000.45, 
            1948.41
        ]
    }, 
    {
        "category": "Ford", 
        "color": [
            0, 
            252, 
            0
        ], 
        "weight": 24.65, 
        "name": "Ford054", 
        "coordinates": [
            2029.15, 
            1928.5
        ]
    }, 
    {
        "category": "Honda", 
        "color": [
            252, 
            0, 
            0
        ], 
        "weight": 30.42, 
        "name": "Honda066", 
        "coordinates": [
            2085.43, 
            1941.88
        ]
    }, 
    {
        "category": "Toyota", 
        "color": [
            0, 
            0, 
            252
        ], 
        "weight": 29.36, 
        "name": "Toyota064", 
        "coordinates": [
            2110.89, 
            1953.93
        ]
    }, 
    {
        "category": "Toyota", 
        "color": [
            0, 
            0, 
            252
        ], 
        "weight": 26.4, 
        "name": "Toyota065", 
        "coordinates": [
            2139.97, 
            1938.18
        ]
    }, 
    {
        "category": "Chevy", 
        "color": [
            252, 
            252, 
            0
        ], 
        "weight": 37.35, 
        "name": "Chevy065", 
        "coordinates": [
            2147.05, 
            1949.64
        ]
    }, 
    {
        "category": "Chevy", 
        "color": [
            252, 
            252, 
            0
        ], 
        "weight": 40.99, 
        "name": "Chevy066", 
        "coordinates": [
            2174.46, 
            2004.89
        ]
    }, 
    {
        "category": "Honda", 
        "color": [
            252, 
            0, 
            0
        ], 
        "weight": 66.68, 
        "name": "Honda067", 
        "coordinates": [
            2223.22, 
            2021.82
        ]
    }, 
    {
        "category": "Honda", 
        "color": [
            252, 
            0, 
            0
        ], 
        "weight": 66.55, 
        "name": "Honda068", 
        "coordinates": [
            2271.31, 
            2009.76
        ]
    }, 
    {
        "category": "Honda", 
        "color": [
            252, 
            0, 
            0
        ], 
        "weight": 55.8, 
        "name": "Honda069", 
        "coordinates": [
            2273.41, 
            2012.94
        ]
    }, 
    {
        "category": "Chevy", 
        "color": [
            252, 
            252, 
            0
        ], 
        "weight": 53.44, 
        "name": "Chevy067", 
        "coordinates": [
            2333.17, 
            2007.24
        ]
    }, 
    {
        "category": "Honda", 
        "color": [
            252, 
            0, 
            0
        ], 
        "weight": 26.98, 
        "name": "Honda070", 
        "coordinates": [
            2344.08, 
            2030.24
        ]
    }, 
    {
        "category": "Honda", 
        "color": [
            252, 
            0, 
            0
        ], 
        "weight": 58.03, 
        "name": "Honda071", 
        "coordinates": [
            2408.76, 
            1998.69
        ]
    }, 
    {
        "category": "Ford", 
        "color": [
            0, 
            252, 
            0
        ], 
        "weight": 45.94, 
        "name": "Ford055", 
        "coordinates": [
            2428.32, 
            2027.37
        ]
    }, 
    {
        "category": "Chevy", 
        "color": [
            252, 
            252, 
            0
        ], 
        "weight": 36.79, 
        "name": "Chevy068", 
        "coordinates": [
            2472.65, 
            2013.95
        ]
    }, 
    {
        "category": "Ford", 
        "color": [
            0, 
            252, 
            0
        ], 
        "weight": 39.95, 
        "name": "Ford056", 
        "coordinates": [
            2509.89, 
            1977.93
        ]
    }, 
    {
        "category": "Toyota", 
        "color": [
            0, 
            0, 
            252
        ], 
        "weight": 51.81, 
        "name": "Toyota066", 
        "coordinates": [
            2301.75, 
            1868.33
        ]
    }, 
    {
        "category": "Toyota", 
        "color": [
            0, 
            0, 
            252
        ], 
        "weight": 41.97, 
        "name": "Toyota067", 
        "coordinates": [
            2365.43, 
            1901.19
        ]
    }, 
    {
        "category": "Toyota", 
        "color": [
            0, 
            0, 
            252
        ], 
        "weight": 69.01, 
        "name": "Toyota068", 
        "coordinates": [
            2404.47, 
            1895.63
        ]
    }, 
    {
        "category": "Ford", 
        "color": [
            0, 
            252, 
            0
        ], 
        "weight": 57.4, 
        "name": "Ford057", 
        "coordinates": [
            2435.34, 
            1865.01
        ]
    }, 
    {
        "category": "Chevy", 
        "color": [
            252, 
            252, 
            0
        ], 
        "weight": 32.27, 
        "name": "Chevy069", 
        "coordinates": [
            2465.81, 
            1911.7
        ]
    }, 
    {
        "category": "Honda", 
        "color": [
            252, 
            0, 
            0
        ], 
        "weight": 51.43, 
        "name": "Honda072", 
        "coordinates": [
            2462.41, 
            1899.41
        ]
    }, 
    {
        "category": "Ford", 
        "color": [
            0, 
            252, 
            0
        ], 
        "weight": 35.94, 
        "name": "Ford058", 
        "coordinates": [
            2509.45, 
            1862.57
        ]
    }, 
    {
        "category": "Chevy", 
        "color": [
            252, 
            252, 
            0
        ], 
        "weight": 30.03, 
        "name": "Chevy070", 
        "coordinates": [
            2567.19, 
            1883.81
        ]
    }, 
    {
        "category": "Honda", 
        "color": [
            252, 
            0, 
            0
        ], 
        "weight": 20.62, 
        "name": "Honda073", 
        "coordinates": [
            2569.67, 
            1844.62
        ]
    }, 
    {
        "category": "Honda", 
        "color": [
            252, 
            0, 
            0
        ], 
        "weight": 42.88, 
        "name": "Honda074", 
        "coordinates": [
            2626.74, 
            1886.09
        ]
    }, 
    {
        "category": "Ford", 
        "color": [
            0, 
            252, 
            0
        ], 
        "weight": 14.92, 
        "name": "Ford059", 
        "coordinates": [
            2646.47, 
            1836.1
        ]
    }, 
    {
        "category": "Ford", 
        "color": [
            0, 
            252, 
            0
        ], 
        "weight": 17.93, 
        "name": "Ford060", 
        "coordinates": [
            2817.72, 
            1807.53
        ]
    }, 
    {
        "category": "Chevy", 
        "color": [
            252, 
            252, 
            0
        ], 
        "weight": 49.87, 
        "name": "Chevy071", 
        "coordinates": [
            2804.04, 
            1798.33
        ]
    }, 
    {
        "category": "Toyota", 
        "color": [
            0, 
            0, 
            252
        ], 
        "weight": 53.15, 
        "name": "Toyota069", 
        "coordinates": [
            2793.36, 
            1840.8
        ]
    }, 
    {
        "category": "Chevy", 
        "color": [
            252, 
            252, 
            0
        ], 
        "weight": 35.18, 
        "name": "Chevy072", 
        "coordinates": [
            2737.47, 
            1811.5
        ]
    }, 
    {
        "category": "Toyota", 
        "color": [
            0, 
            0, 
            252
        ], 
        "weight": 28.03, 
        "name": "Toyota070", 
        "coordinates": [
            2712.98, 
            1809.03
        ]
    }, 
    {
        "category": "Toyota", 
        "color": [
            0, 
            0, 
            252
        ], 
        "weight": 30.22, 
        "name": "Toyota071", 
        "coordinates": [
            2655.45, 
            1842.13
        ]
    }, 
    {
        "category": "Honda", 
        "color": [
            252, 
            0, 
            0
        ], 
        "weight": 62.51, 
        "name": "Honda075", 
        "coordinates": [
            2632.16, 
            1863.5
        ]
    }, 
    {
        "category": "Ford", 
        "color": [
            0, 
            252, 
            0
        ], 
        "weight": 22.55, 
        "name": "Ford061", 
        "coordinates": [
            2627.12, 
            1845.9
        ]
    }, 
    {
        "category": "Ford", 
        "color": [
            0, 
            252, 
            0
        ], 
        "weight": 24.56, 
        "name": "Ford062", 
        "coordinates": [
            2554.11, 
            1888.26
        ]
    }, 
    {
        "category": "Toyota", 
        "color": [
            0, 
            0, 
            252
        ], 
        "weight": 15.71, 
        "name": "Toyota072", 
        "coordinates": [
            2547.78, 
            1831.64
        ]
    }, 
    {
        "category": "Toyota", 
        "color": [
            0, 
            0, 
            252
        ], 
        "weight": 28.98, 
        "name": "Toyota073", 
        "coordinates": [
            2502.74, 
            1853.1
        ]
    }, 
    {
        "category": "Ford", 
        "color": [
            0, 
            252, 
            0
        ], 
        "weight": 10.47, 
        "name": "Ford063", 
        "coordinates": [
            2495.89, 
            1870.09
        ]
    }, 
    {
        "category": "Ford", 
        "color": [
            0, 
            252, 
            0
        ], 
        "weight": 20.39, 
        "name": "Ford064", 
        "coordinates": [
            2459.83, 
            1833.06
        ]
    }, 
    {
        "category": "Honda", 
        "color": [
            252, 
            0, 
            0
        ], 
        "weight": 21.36, 
        "name": "Honda076", 
        "coordinates": [
            2390.77, 
            1843.81
        ]
    }, 
    {
        "category": "Honda", 
        "color": [
            252, 
            0, 
            0
        ], 
        "weight": 11.99, 
        "name": "Honda077", 
        "coordinates": [
            2376.36, 
            1843.92
        ]
    }, 
    {
        "category": "Ford", 
        "color": [
            0, 
            252, 
            0
        ], 
        "weight": 29.82, 
        "name": "Ford065", 
        "coordinates": [
            2342.22, 
            1865.39
        ]
    }, 
    {
        "category": "Chevy", 
        "color": [
            252, 
            252, 
            0
        ], 
        "weight": 26.43, 
        "name": "Chevy073", 
        "coordinates": [
            2303.14, 
            1834.0
        ]
    }, 
    {
        "category": "Toyota", 
        "color": [
            0, 
            0, 
            252
        ], 
        "weight": 30.79, 
        "name": "Toyota074", 
        "coordinates": [
            1776.43, 
            1717.69
        ]
    }, 
    {
        "category": "Toyota", 
        "color": [
            0, 
            0, 
            252
        ], 
        "weight": 48.07, 
        "name": "Toyota075", 
        "coordinates": [
            1804.86, 
            1725.6
        ]
    }, 
    {
        "category": "Ford", 
        "color": [
            0, 
            252, 
            0
        ], 
        "weight": 30.37, 
        "name": "Ford066", 
        "coordinates": [
            1849.92, 
            1693.22
        ]
    }, 
    {
        "category": "Honda", 
        "color": [
            252, 
            0, 
            0
        ], 
        "weight": 60.02, 
        "name": "Honda078", 
        "coordinates": [
            1859.32, 
            1632.56
        ]
    }, 
    {
        "category": "Chevy", 
        "color": [
            252, 
            252, 
            0
        ], 
        "weight": 63.3, 
        "name": "Chevy074", 
        "coordinates": [
            1881.61, 
            1642.47
        ]
    }, 
    {
        "category": "Chevy", 
        "color": [
            252, 
            252, 
            0
        ], 
        "weight": 33.93, 
        "name": "Chevy075", 
        "coordinates": [
            1924.56, 
            1652.13
        ]
    }, 
    {
        "category": "Honda", 
        "color": [
            252, 
            0, 
            0
        ], 
        "weight": 46.84, 
        "name": "Honda079", 
        "coordinates": [
            1964.5, 
            1660.99
        ]
    }, 
    {
        "category": "Chevy", 
        "color": [
            252, 
            252, 
            0
        ], 
        "weight": 22.84, 
        "name": "Chevy076", 
        "coordinates": [
            1983.72, 
            1648.53
        ]
    }, 
    {
        "category": "Ford", 
        "color": [
            0, 
            252, 
            0
        ], 
        "weight": 49.05, 
        "name": "Ford067", 
        "coordinates": [
            2017.75, 
            1656.65
        ]
    }, 
    {
        "category": "Ford", 
        "color": [
            0, 
            252, 
            0
        ], 
        "weight": 47.88, 
        "name": "Ford068", 
        "coordinates": [
            2053.97, 
            1643.14
        ]
    }, 
    {
        "category": "Honda", 
        "color": [
            252, 
            0, 
            0
        ], 
        "weight": 65.11, 
        "name": "Honda080", 
        "coordinates": [
            2088.45, 
            1642.29
        ]
    }, 
    {
        "category": "Toyota", 
        "color": [
            0, 
            0, 
            252
        ], 
        "weight": 25.65, 
        "name": "Toyota076", 
        "coordinates": [
            2117.56, 
            1619.87
        ]
    }, 
    {
        "category": "Chevy", 
        "color": [
            252, 
            252, 
            0
        ], 
        "weight": 59.72, 
        "name": "Chevy077", 
        "coordinates": [
            2136.61, 
            1617.18
        ]
    }, 
    {
        "category": "Ford", 
        "color": [
            0, 
            252, 
            0
        ], 
        "weight": 41.78, 
        "name": "Ford069", 
        "coordinates": [
            2102.33, 
            1616.2
        ]
    }, 
    {
        "category": "Honda", 
        "color": [
            252, 
            0, 
            0
        ], 
        "weight": 19.63, 
        "name": "Honda081", 
        "coordinates": [
            2036.61, 
            1624.36
        ]
    }, 
    {
        "category": "Ford", 
        "color": [
            0, 
            252, 
            0
        ], 
        "weight": 53.75, 
        "name": "Ford070", 
        "coordinates": [
            2027.63, 
            1625.17
        ]
    }, 
    {
        "category": "Ford", 
        "color": [
            0, 
            252, 
            0
        ], 
        "weight": 55.06, 
        "name": "Ford071", 
        "coordinates": [
            1983.58, 
            1629.86
        ]
    }, 
    {
        "category": "Toyota", 
        "color": [
            0, 
            0, 
            252
        ], 
        "weight": 32.89, 
        "name": "Toyota077", 
        "coordinates": [
            1935.33, 
            1646.86
        ]
    }, 
    {
        "category": "Chevy", 
        "color": [
            252, 
            252, 
            0
        ], 
        "weight": 14.5, 
        "name": "Chevy078", 
        "coordinates": [
            1911.9, 
            1671.14
        ]
    }, 
    {
        "category": "Honda", 
        "color": [
            252, 
            0, 
            0
        ], 
        "weight": 47.13, 
        "name": "Honda082", 
        "coordinates": [
            1883.49, 
            1622.74
        ]
    }, 
    {
        "category": "Chevy", 
        "color": [
            252, 
            252, 
            0
        ], 
        "weight": 56.92, 
        "name": "Chevy079", 
        "coordinates": [
            1903.61, 
            1656.64
        ]
    }, 
    {
        "category": "Toyota", 
        "color": [
            0, 
            0, 
            252
        ], 
        "weight": 32.09, 
        "name": "Toyota078", 
        "coordinates": [
            1870.26, 
            1591.34
        ]
    }, 
    {
        "category": "Toyota", 
        "color": [
            0, 
            0, 
            252
        ], 
        "weight": 67.51, 
        "name": "Toyota079", 
        "coordinates": [
            1916.25, 
            1555.13
        ]
    }, 
    {
        "category": "Ford", 
        "color": [
            0, 
            252, 
            0
        ], 
        "weight": 60.3, 
        "name": "Ford072", 
        "coordinates": [
            1873.83, 
            1521.15
        ]
    }, 
    {
        "category": "Honda", 
        "color": [
            252, 
            0, 
            0
        ], 
        "weight": 28.88, 
        "name": "Honda083", 
        "coordinates": [
            1890.9, 
            1522.91
        ]
    }, 
    {
        "category": "Toyota", 
        "color": [
            0, 
            0, 
            252
        ], 
        "weight": 69.24, 
        "name": "Toyota080", 
        "coordinates": [
            1891.36, 
            1459.42
        ]
    }, 
    {
        "category": "Honda", 
        "color": [
            252, 
            0, 
            0
        ], 
        "weight": 27.77, 
        "name": "Honda084", 
        "coordinates": [
            1896.63, 
            1417.27
        ]
    }, 
    {
        "category": "Honda", 
        "color": [
            252, 
            0, 
            0
        ], 
        "weight": 35.53, 
        "name": "Honda085", 
        "coordinates": [
            1835.05, 
            1418.93
        ]
    }, 
    {
        "category": "Honda", 
        "color": [
            252, 
            0, 
            0
        ], 
        "weight": 39.84, 
        "name": "Honda086", 
        "coordinates": [
            1843.96, 
            1387.35
        ]
    }, 
    {
        "category": "Honda", 
        "color": [
            252, 
            0, 
            0
        ], 
        "weight": 16.27, 
        "name": "Honda087", 
        "coordinates": [
            1841.55, 
            1346.35
        ]
    }, 
    {
        "category": "Honda", 
        "color": [
            252, 
            0, 
            0
        ], 
        "weight": 64.9, 
        "name": "Honda088", 
        "coordinates": [
            1851.48, 
            1380.45
        ]
    }, 
    {
        "category": "Ford", 
        "color": [
            0, 
            252, 
            0
        ], 
        "weight": 45.04, 
        "name": "Ford073", 
        "coordinates": [
            1887.02, 
            1392.75
        ]
    }, 
    {
        "category": "Ford", 
        "color": [
            0, 
            252, 
            0
        ], 
        "weight": 42.18, 
        "name": "Ford074", 
        "coordinates": [
            1847.52, 
            1454.42
        ]
    }, 
    {
        "category": "Toyota", 
        "color": [
            0, 
            0, 
            252
        ], 
        "weight": 17.51, 
        "name": "Toyota081", 
        "coordinates": [
            1916.55, 
            1478.09
        ]
    }, 
    {
        "category": "Toyota", 
        "color": [
            0, 
            0, 
            252
        ], 
        "weight": 45.0, 
        "name": "Toyota082", 
        "coordinates": [
            1877.96, 
            1493.68
        ]
    }, 
    {
        "category": "Chevy", 
        "color": [
            252, 
            252, 
            0
        ], 
        "weight": 13.38, 
        "name": "Chevy080", 
        "coordinates": [
            1867.7, 
            1528.76
        ]
    }, 
    {
        "category": "Ford", 
        "color": [
            0, 
            252, 
            0
        ], 
        "weight": 44.71, 
        "name": "Ford075", 
        "coordinates": [
            1876.07, 
            1586.04
        ]
    }, 
    {
        "category": "Ford", 
        "color": [
            0, 
            252, 
            0
        ], 
        "weight": 54.7, 
        "name": "Ford076", 
        "coordinates": [
            1911.35, 
            1626.32
        ]
    }, 
    {
        "category": "Ford", 
        "color": [
            0, 
            252, 
            0
        ], 
        "weight": 63.33, 
        "name": "Ford077", 
        "coordinates": [
            1901.81, 
            1600.06
        ]
    }, 
    {
        "category": "Chevy", 
        "color": [
            252, 
            252, 
            0
        ], 
        "weight": 52.85, 
        "name": "Chevy081", 
        "coordinates": [
            1852.55, 
            1573.12
        ]
    }, 
    {
        "category": "Ford", 
        "color": [
            0, 
            252, 
            0
        ], 
        "weight": 13.22, 
        "name": "Ford078", 
        "coordinates": [
            1862.46, 
            1498.78
        ]
    }, 
    {
        "category": "Chevy", 
        "color": [
            252, 
            252, 
            0
        ], 
        "weight": 15.73, 
        "name": "Chevy082", 
        "coordinates": [
            1853.48, 
            1498.23
        ]
    }, 
    {
        "category": "Honda", 
        "color": [
            252, 
            0, 
            0
        ], 
        "weight": 39.08, 
        "name": "Honda089", 
        "coordinates": [
            1865.37, 
            1470.74
        ]
    }, 
    {
        "category": "Honda", 
        "color": [
            252, 
            0, 
            0
        ], 
        "weight": 67.88, 
        "name": "Honda090", 
        "coordinates": [
            1858.57, 
            1418.81
        ]
    }, 
    {
        "category": "Honda", 
        "color": [
            252, 
            0, 
            0
        ], 
        "weight": 62.75, 
        "name": "Honda091", 
        "coordinates": [
            1853.79, 
            1414.02
        ]
    }, 
    {
        "category": "Ford", 
        "color": [
            0, 
            252, 
            0
        ], 
        "weight": 33.48, 
        "name": "Ford079", 
        "coordinates": [
            1841.24, 
            1364.64
        ]
    }, 
    {
        "category": "Ford", 
        "color": [
            0, 
            252, 
            0
        ], 
        "weight": 67.23, 
        "name": "Ford080", 
        "coordinates": [
            1823.01, 
            1363.35
        ]
    }, 
    {
        "category": "Honda", 
        "color": [
            252, 
            0, 
            0
        ], 
        "weight": 23.31, 
        "name": "Honda092", 
        "coordinates": [
            1824.63, 
            1307.23
        ]
    }, 
    {
        "category": "Chevy", 
        "color": [
            252, 
            252, 
            0
        ], 
        "weight": 22.83, 
        "name": "Chevy083", 
        "coordinates": [
            1776.72, 
            1314.22
        ]
    }, 
    {
        "category": "Ford", 
        "color": [
            0, 
            252, 
            0
        ], 
        "weight": 63.85, 
        "name": "Ford081", 
        "coordinates": [
            1723.18, 
            1304.8
        ]
    }, 
    {
        "category": "Toyota", 
        "color": [
            0, 
            0, 
            252
        ], 
        "weight": 26.42, 
        "name": "Toyota083", 
        "coordinates": [
            1704.19, 
            1289.89
        ]
    }, 
    {
        "category": "Toyota", 
        "color": [
            0, 
            0, 
            252
        ], 
        "weight": 50.94, 
        "name": "Toyota084", 
        "coordinates": [
            1660.69, 
            1306.12
        ]
    }, 
    {
        "category": "Honda", 
        "color": [
            252, 
            0, 
            0
        ], 
        "weight": 44.67, 
        "name": "Honda093", 
        "coordinates": [
            1654.35, 
            1334.85
        ]
    }, 
    {
        "category": "Toyota", 
        "color": [
            0, 
            0, 
            252
        ], 
        "weight": 13.59, 
        "name": "Toyota085", 
        "coordinates": [
            1612.55, 
            1289.04
        ]
    }, 
    {
        "category": "Chevy", 
        "color": [
            252, 
            252, 
            0
        ], 
        "weight": 47.48, 
        "name": "Chevy084", 
        "coordinates": [
            1581.33, 
            1306.85
        ]
    }, 
    {
        "category": "Toyota", 
        "color": [
            0, 
            0, 
            252
        ], 
        "weight": 21.14, 
        "name": "Toyota086", 
        "coordinates": [
            1816.84, 
            1342.42
        ]
    }, 
    {
        "category": "Honda", 
        "color": [
            252, 
            0, 
            0
        ], 
        "weight": 63.14, 
        "name": "Honda094", 
        "coordinates": [
            1844.52, 
            1343.4
        ]
    }, 
    {
        "category": "Ford", 
        "color": [
            0, 
            252, 
            0
        ], 
        "weight": 10.88, 
        "name": "Ford082", 
        "coordinates": [
            1894.94, 
            1308.87
        ]
    }, 
    {
        "category": "Chevy", 
        "color": [
            252, 
            252, 
            0
        ], 
        "weight": 10.56, 
        "name": "Chevy085", 
        "coordinates": [
            1908.53, 
            1298.02
        ]
    }, 
    {
        "category": "Toyota", 
        "color": [
            0, 
            0, 
            252
        ], 
        "weight": 29.79, 
        "name": "Toyota087", 
        "coordinates": [
            1966.12, 
            1310.42
        ]
    }, 
    {
        "category": "Toyota", 
        "color": [
            0, 
            0, 
            252
        ], 
        "weight": 44.72, 
        "name": "Toyota088", 
        "coordinates": [
            1986.72, 
            1324.11
        ]
    }, 
    {
        "category": "Ford", 
        "color": [
            0, 
            252, 
            0
        ], 
        "weight": 59.06, 
        "name": "Ford083", 
        "coordinates": [
            2042.3, 
            1297.16
        ]
    }, 
    {
        "category": "Ford", 
        "color": [
            0, 
            252, 
            0
        ], 
        "weight": 17.11, 
        "name": "Ford084", 
        "coordinates": [
            2054.14, 
            1338.52
        ]
    }, 
    {
        "category": "Chevy", 
        "color": [
            252, 
            252, 
            0
        ], 
        "weight": 56.69, 
        "name": "Chevy086", 
        "coordinates": [
            2074.35, 
            1325.02
        ]
    }, 
    {
        "category": "Honda", 
        "color": [
            252, 
            0, 
            0
        ], 
        "weight": 46.81, 
        "name": "Honda095", 
        "coordinates": [
            2141.64, 
            1299.12
        ]
    }, 
    {
        "category": "Toyota", 
        "color": [
            0, 
            0, 
            252
        ], 
        "weight": 15.79, 
        "name": "Toyota089", 
        "coordinates": [
            2137.66, 
            1269.13
        ]
    }, 
    {
        "category": "Ford", 
        "color": [
            0, 
            252, 
            0
        ], 
        "weight": 61.92, 
        "name": "Ford085", 
        "coordinates": [
            2166.31, 
            1292.11
        ]
    }, 
    {
        "category": "Chevy", 
        "color": [
            252, 
            252, 
            0
        ], 
        "weight": 53.34, 
        "name": "Chevy087", 
        "coordinates": [
            2202.0, 
            1267.62
        ]
    }, 
    {
        "category": "Ford", 
        "color": [
            0, 
            252, 
            0
        ], 
        "weight": 22.63, 
        "name": "Ford086", 
        "coordinates": [
            2261.57, 
            1277.7
        ]
    }, 
    {
        "category": "Honda", 
        "color": [
            252, 
            0, 
            0
        ], 
        "weight": 31.59, 
        "name": "Honda096", 
        "coordinates": [
            2264.37, 
            1238.88
        ]
    }, 
    {
        "category": "Chevy", 
        "color": [
            252, 
            252, 
            0
        ], 
        "weight": 53.34, 
        "name": "Chevy088", 
        "coordinates": [
            1998.42, 
            1296.45
        ]
    }, 
    {
        "category": "Chevy", 
        "color": [
            252, 
            252, 
            0
        ], 
        "weight": 27.13, 
        "name": "Chevy089", 
        "coordinates": [
            1963.15, 
            1306.42
        ]
    }, 
    {
        "category": "Chevy", 
        "color": [
            252, 
            252, 
            0
        ], 
        "weight": 41.93, 
        "name": "Chevy090", 
        "coordinates": [
            1945.12, 
            1287.46
        ]
    }, 
    {
        "category": "Honda", 
        "color": [
            252, 
            0, 
            0
        ], 
        "weight": 39.97, 
        "name": "Honda097", 
        "coordinates": [
            1924.92, 
            1279.64
        ]
    }
]